{
    "Auth": true,
    "Company": true,
    "Flight": true,
    "Operation": true,
    "Accounting": true,
    "Country": true,
    "Common": true,
    "Service": true,
    "User": true,
    "FlowEngine": true
}